Designator,Footprint,Quantity,Value,LCSC Part #
"C1, C2, C3",C0805,3,100n,
"D1, D3",SOD323R-INFINEON,2,1N4148WX-TP,
D2,SMB,1,5.1v,
"LED1, LED2",CHIP-LED0805,2,white,
"R1, R8, R9",R0805,3,10k,
R10,R0805,1,22k,
R11,R0805,1,300,
"R12, R3",R0805,2,220,
R2,R0805,1,220k,
R4,R0805,1,5k1,
R5,R0805,1,1k,
R6,R0805,1,39k,
R7,R0805,1,4k7,
"T1, T2",SOT23,2,BC847,
U1,SOIC254P1030X460-8N,1,6N136-X009,
X1,F25D,1,,
X2,MAB5SH,1,Midi Out,
X3,MAB5SH,1,Midi In,
